1102_week5_experiment/invert_10K.CSV

Format,1.0B,
Memory Length,10000,Memory Length,10000,
IntpDistance,0,IntpDistance,0,
Trigger Address,4999,Trigger Address,4999,
Trigger Level,-2.400E+00,Trigger Level,-2.400E+00,
Source,CH1,Source,CH2,
Vertical Units,V,Vertical Units,V,
Vertical Units Div,0,Vertical Units Div,0,
Vertical Units Extend Div,16,Vertical Units Extend Div,16,
Label, ,Label, ,
Probe Type,0,Probe Type,0,
Probe Ratio,1.000E+00,Probe Ratio,1.000E+00,
Vertical Scale,1.000E+00,Vertical Scale,5.000E+00,
Vertical Position,0.000E+00,Vertical Position,0.000E+00,
Horizontal Units,S,Horizontal Units,S,
Horizontal Scale,2.000E-05,Horizontal Scale,2.000E-05,
Horizontal Position,0.000E+00,Horizontal Position,0.000E+00,
Horizontal Mode,Main,Horizontal Mode,Main,
SincET Mode,Real Time,SincET Mode,Real Time,
Sampling Period,2.000E-08,Sampling Period,2.000E-08,
Horizontal Old Scale,2.000E-05,Horizontal Old Scale,2.000E-05,
Horizontal Old Position,0.000E+00,Horizontal Old Position,0.000E+00,
Firmware,V1.23,Firmware,V1.23,
Mode,Detail,Mode,Detail,
Waveform Data,,Waveform Data,,
-1.000000e-04,0.760000,-1.000000e-04,-2.800000,
-9.998000e-05,0.760000,-9.998000e-05,-2.800000,
-9.996000e-05,0.760000,-9.996000e-05,-2.600000,
-9.994000e-05,0.760000,-9.994000e-05,-2.800000,
-9.992000e-05,0.720000,-9.992000e-05,-2.600000,
-9.990000e-05,0.720000,-9.990000e-05,-2.600000,
-9.988000e-05,0.720000,-9.988000e-05,-2.600000,
-9.986000e-05,0.720000,-9.986000e-05,-2.600000,
-9.984000e-05,0.720000,-9.984000e-05,-2.600000,
-9.982000e-05,0.720000,-9.982000e-05,-2.600000,
-9.980000e-05,0.720000,-9.980000e-05,-2.600000,
-9.978000e-05,0.720000,-9.978000e-05,-2.600000,
-9.976000e-05,0.720000,-9.976000e-05,-2.600000,
-9.974000e-05,0.720000,-9.974000e-05,-2.600000,
-9.972000e-05,0.720000,-9.972000e-05,-2.600000,
-9.970000e-05,0.720000,-9.970000e-05,-2.600000,
-9.968000e-05,0.680000,-9.968000e-05,-2.600000,
-9.966000e-05,0.680000,-9.966000e-05,-2.600000,
-9.964000e-05,0.720000,-9.964000e-05,-2.600000,
-9.962000e-05,0.680000,-9.962000e-05,-2.600000,
-9.960000e-05,0.680000,-9.960000e-05,-2.600000,
-9.958000e-05,0.680000,-9.958000e-05,-2.600000,
-9.956000e-05,0.680000,-9.956000e-05,-2.600000,
-9.954000e-05,0.680000,-9.954000e-05,-2.600000,
-9.952000e-05,0.680000,-9.952000e-05,-2.600000,
-9.950000e-05,0.680000,-9.950000e-05,-2.600000,
-9.948000e-05,0.680000,-9.948000e-05,-2.600000,
-9.946000e-05,0.680000,-9.946000e-05,-2.600000,
-9.944000e-05,0.680000,-9.944000e-05,-2.600000,
-9.942000e-05,0.680000,-9.942000e-05,-2.600000,
-9.940000e-05,0.680000,-9.940000e-05,-2.600000,
-9.938000e-05,0.680000,-9.938000e-05,-2.600000,
-9.936000e-05,0.680000,-9.936000e-05,-2.600000,
-9.934000e-05,0.680000,-9.934000e-05,-2.600000,
-9.932000e-05,0.640000,-9.932000e-05,-2.600000,
-9.930000e-05,0.640000,-9.930000e-05,-2.200000,
-9.928000e-05,0.640000,-9.928000e-05,-2.600000,
-9.926000e-05,0.640000,-9.926000e-05,-2.200000,
-9.924000e-05,0.640000,-9.924000e-05,-2.200000,
-9.922000e-05,0.640000,-9.922000e-05,-2.200000,
-9.920000e-05,0.640000,-9.920000e-05,-2.200000,
-9.918000e-05,0.640000,-9.918000e-05,-2.200000,
-9.916000e-05,0.640000,-9.916000e-05,-2.200000,
-9.914000e-05,0.640000,-9.914000e-05,-2.600000,
-9.912000e-05,0.640000,-9.912000e-05,-2.200000,
-9.910000e-05,0.640000,-9.910000e-05,-2.200000,
-9.908000e-05,0.600000,-9.908000e-05,-2.200000,
-9.906000e-05,0.600000,-9.906000e-05,-2.200000,
-9.904000e-05,0.640000,-9.904000e-05,-2.200000,
-9.902000e-05,0.600000,-9.902000e-05,-2.200000,
-9.900000e-05,0.600000,-9.900000e-05,-2.200000,
-9.898000e-05,0.600000,-9.898000e-05,-2.200000,
-9.896000e-05,0.600000,-9.896000e-05,-2.200000,
-9.894000e-05,0.600000,-9.894000e-05,-2.200000,
-9.892000e-05,0.600000,-9.892000e-05,-2.200000,
-9.890000e-05,0.600000,-9.890000e-05,-2.200000,
-9.888000e-05,0.600000,-9.888000e-05,-2.200000,
-9.886000e-05,0.600000,-9.886000e-05,-2.200000,
-9.884000e-05,0.600000,-9.884000e-05,-2.200000,
-9.882000e-05,0.600000,-9.882000e-05,-2.200000,
-9.880000e-05,0.600000,-9.880000e-05,-2.200000,
-9.878000e-05,0.600000,-9.878000e-05,-2.200000,
-9.876000e-05,0.560000,-9.876000e-05,-2.200000,
-9.874000e-05,0.560000,-9.874000e-05,-2.200000,
-9.872000e-05,0.560000,-9.872000e-05,-2.200000,
-9.870000e-05,0.560000,-9.870000e-05,-2.200000,
-9.868000e-05,0.560000,-9.868000e-05,-2.200000,
-9.866000e-05,0.560000,-9.866000e-05,-2.200000,
-9.864000e-05,0.560000,-9.864000e-05,-2.200000,
-9.862000e-05,0.560000,-9.862000e-05,-2.000000,
-9.860000e-05,0.560000,-9.860000e-05,-2.000000,
-9.858000e-05,0.560000,-9.858000e-05,-2.200000,
-9.856000e-05,0.560000,-9.856000e-05,-2.200000,
-9.854000e-05,0.560000,-9.854000e-05,-2.000000,
-9.852000e-05,0.560000,-9.852000e-05,-2.000000,
-9.850000e-05,0.560000,-9.850000e-05,-2.000000,
-9.848000e-05,0.520000,-9.848000e-05,-2.000000,
-9.846000e-05,0.520000,-9.846000e-05,-2.000000,
-9.844000e-05,0.520000,-9.844000e-05,-2.000000,
-9.842000e-05,0.520000,-9.842000e-05,-2.000000,
-9.840000e-05,0.520000,-9.840000e-05,-2.000000,
-9.838000e-05,0.520000,-9.838000e-05,-2.000000,
-9.836000e-05,0.520000,-9.836000e-05,-2.000000,
-9.834000e-05,0.520000,-9.834000e-05,-2.000000,
-9.832000e-05,0.520000,-9.832000e-05,-2.000000,
-9.830000e-05,0.520000,-9.830000e-05,-2.000000,
-9.828000e-05,0.520000,-9.828000e-05,-2.000000,
-9.826000e-05,0.520000,-9.826000e-05,-2.000000,
-9.824000e-05,0.520000,-9.824000e-05,-2.000000,
-9.822000e-05,0.520000,-9.822000e-05,-2.000000,
-9.820000e-05,0.520000,-9.820000e-05,-2.000000,
-9.818000e-05,0.480000,-9.818000e-05,-2.000000,
-9.816000e-05,0.520000,-9.816000e-05,-2.000000,
-9.814000e-05,0.480000,-9.814000e-05,-2.000000,
-9.812000e-05,0.480000,-9.812000e-05,-2.000000,
-9.810000e-05,0.480000,-9.810000e-05,-2.000000,
-9.808000e-05,0.480000,-9.808000e-05,-2.000000,
-9.806000e-05,0.480000,-9.806000e-05,-2.000000,
-9.804000e-05,0.480000,-9.804000e-05,-2.000000,
-9.802000e-05,0.480000,-9.802000e-05,-2.000000,
-9.800000e-05,0.480000,-9.800000e-05,-2.000000,
-9.798000e-05,0.480000,-9.798000e-05,-2.000000,
-9.796000e-05,0.480000,-9.796000e-05,-2.000000,
-9.794000e-05,0.480000,-9.794000e-05,-2.000000,
-9.792000e-05,0.480000,-9.792000e-05,-2.000000,
-9.790000e-05,0.480000,-9.790000e-05,-2.000000,
-9.788000e-05,0.440000,-9.788000e-05,-1.800000,
-9.786000e-05,0.440000,-9.786000e-05,-1.800000,
-9.784000e-05,0.480000,-9.784000e-05,-2.000000,
-9.782000e-05,0.440000,-9.782000e-05,-1.800000,
-9.780000e-05,0.440000,-9.780000e-05,-1.800000,
-9.778000e-05,0.440000,-9.778000e-05,-1.800000,
-9.776000e-05,0.440000,-9.776000e-05,-1.800000,
-9.774000e-05,0.440000,-9.774000e-05,-1.800000,
-9.772000e-05,0.440000,-9.772000e-05,-1.800000,
-9.770000e-05,0.440000,-9.770000e-05,-1.800000,
-9.768000e-05,0.440000,-9.768000e-05,-1.800000,
-9.766000e-05,0.440000,-9.766000e-05,-1.800000,
-9.764000e-05,0.360000,-9.764000e-05,-1.800000,
-9.762000e-05,0.440000,-9.762000e-05,-1.800000,
-9.760000e-05,0.440000,-9.760000e-05,-1.800000,
-9.758000e-05,0.440000,-9.758000e-05,-1.800000,
-9.756000e-05,0.440000,-9.756000e-05,-1.800000,
-9.754000e-05,0.360000,-9.754000e-05,-1.800000,
-9.752000e-05,0.360000,-9.752000e-05,-1.800000,
-9.750000e-05,0.360000,-9.750000e-05,-1.800000,
-9.748000e-05,0.360000,-9.748000e-05,-1.800000,
-9.746000e-05,0.360000,-9.746000e-05,-1.800000,
-9.744000e-05,0.360000,-9.744000e-05,-1.800000,
-9.742000e-05,0.360000,-9.742000e-05,-1.800000,
-9.740000e-05,0.360000,-9.740000e-05,-1.800000,
-9.738000e-05,0.360000,-9.738000e-05,-1.800000,
-9.736000e-05,0.360000,-9.736000e-05,-1.800000,
-9.734000e-05,0.360000,-9.734000e-05,-1.800000,
-9.732000e-05,0.360000,-9.732000e-05,-1.400000,
-9.730000e-05,0.360000,-9.730000e-05,-1.800000,
-9.728000e-05,0.360000,-9.728000e-05,-1.400000,
-9.726000e-05,0.320000,-9.726000e-05,-1.400000,
-9.724000e-05,0.320000,-9.724000e-05,-1.400000,
-9.722000e-05,0.320000,-9.722000e-05,-1.800000,
-9.720000e-05,0.320000,-9.720000e-05,-1.400000,
-9.718000e-05,0.320000,-9.718000e-05,-1.400000,
-9.716000e-05,0.320000,-9.716000e-05,-1.400000,
-9.714000e-05,0.320000,-9.714000e-05,-1.400000,
-9.712000e-05,0.320000,-9.712000e-05,-1.400000,
-9.710000e-05,0.320000,-9.710000e-05,-1.400000,
-9.708000e-05,0.320000,-9.708000e-05,-1.400000,
-9.706000e-05,0.280000,-9.706000e-05,-1.400000,
-9.704000e-05,0.320000,-9.704000e-05,-1.400000,
-9.702000e-05,0.320000,-9.702000e-05,-1.400000,
-9.700000e-05,0.280000,-9.700000e-05,-1.400000,
-9.698000e-05,0.320000,-9.698000e-05,-1.400000,
-9.696000e-05,0.280000,-9.696000e-05,-1.400000,
-9.694000e-05,0.280000,-9.694000e-05,-1.400000,
-9.692000e-05,0.280000,-9.692000e-05,-1.400000,
-9.690000e-05,0.280000,-9.690000e-05,-1.400000,
-9.688000e-05,0.280000,-9.688000e-05,-1.400000,
-9.686000e-05,0.280000,-9.686000e-05,-1.400000,
-9.684000e-05,0.280000,-9.684000e-05,-1.400000,
-9.682000e-05,0.280000,-9.682000e-05,-1.400000,
-9.680000e-05,0.280000,-9.680000e-05,-1.400000,
-9.678000e-05,0.280000,-9.678000e-05,-1.400000,
-9.676000e-05,0.280000,-9.676000e-05,-1.400000,
-9.674000e-05,0.280000,-9.674000e-05,-1.400000,
-9.672000e-05,0.280000,-9.672000e-05,-1.400000,
-9.670000e-05,0.240000,-9.670000e-05,-1.400000,
-9.668000e-05,0.240000,-9.668000e-05,-1.400000,
-9.666000e-05,0.240000,-9.666000e-05,-1.400000,
-9.664000e-05,0.240000,-9.664000e-05,-1.400000,
-9.662000e-05,0.240000,-9.662000e-05,-1.400000,
-9.660000e-05,0.240000,-9.660000e-05,-1.200000,
-9.658000e-05,0.240000,-9.658000e-05,-1.400000,
-9.656000e-05,0.240000,-9.656000e-05,-1.200000,
-9.654000e-05,0.240000,-9.654000e-05,-1.200000,
-9.652000e-05,0.240000,-9.652000e-05,-1.200000,
-9.650000e-05,0.240000,-9.650000e-05,-1.200000,
-9.648000e-05,0.240000,-9.648000e-05,-1.200000,
-9.646000e-05,0.240000,-9.646000e-05,-1.200000,
-9.644000e-05,0.240000,-9.644000e-05,-1.200000,
-9.642000e-05,0.200000,-9.642000e-05,-1.200000,
-9.640000e-05,0.240000,-9.640000e-05,-1.200000,
-9.638000e-05,0.200000,-9.638000e-05,-1.200000,
-9.636000e-05,0.200000,-9.636000e-05,-1.200000,
-9.634000e-05,0.200000,-9.634000e-05,-1.200000,
-9.632000e-05,0.200000,-9.632000e-05,-1.200000,
-9.630000e-05,0.200000,-9.630000e-05,-1.200000,
-9.628000e-05,0.200000,-9.628000e-05,-1.200000,
-9.626000e-05,0.200000,-9.626000e-05,-1.200000,
-9.624000e-05,0.200000,-9.624000e-05,-1.200000,
-9.622000e-05,0.200000,-9.622000e-05,-1.200000,
-9.620000e-05,0.200000,-9.620000e-05,-1.200000,
-9.618000e-05,0.200000,-9.618000e-05,-1.200000,
-9.616000e-05,0.200000,-9.616000e-05,-1.200000,
-9.614000e-05,0.160000,-9.614000e-05,-1.200000,
-9.612000e-05,0.200000,-9.612000e-05,-1.200000,
-9.610000e-05,0.160000,-9.610000e-05,-1.200000,
-9.608000e-05,0.160000,-9.608000e-05,-1.200000,
-9.606000e-05,0.160000,-9.606000e-05,-1.200000,
-9.604000e-05,0.160000,-9.604000e-05,-1.200000,
-9.602000e-05,0.160000,-9.602000e-05,-1.200000,
-9.600000e-05,0.160000,-9.600000e-05,-1.200000,
-9.598000e-05,0.160000,-9.598000e-05,-1.200000,
-9.596000e-05,0.160000,-9.596000e-05,-0.800000,
-9.594000e-05,0.160000,-9.594000e-05,-1.200000,
-9.592000e-05,0.160000,-9.592000e-05,-0.800000,
-9.590000e-05,0.160000,-9.590000e-05,-0.800000,
-9.588000e-05,0.120000,-9.588000e-05,-0.800000,
-9.586000e-05,0.120000,-9.586000e-05,-0.800000,
-9.584000e-05,0.120000,-9.584000e-05,-0.800000,
-9.582000e-05,0.120000,-9.582000e-05,-0.800000,
-9.580000e-05,0.120000,-9.580000e-05,-0.800000,
-9.578000e-05,0.120000,-9.578000e-05,-0.800000,
-9.576000e-05,0.120000,-9.576000e-05,-0.800000,
-9.574000e-05,0.120000,-9.574000e-05,-0.800000,
-9.572000e-05,0.120000,-9.572000e-05,-0.800000,
-9.570000e-05,0.120000,-9.570000e-05,-0.800000,
-9.568000e-05,0.120000,-9.568000e-05,-0.800000,
-9.566000e-05,0.120000,-9.566000e-05,-0.800000,
-9.564000e-05,0.120000,-9.564000e-05,-0.800000,
-9.562000e-05,0.120000,-9.562000e-05,-0.800000,
-9.560000e-05,0.120000,-9.560000e-05,-0.800000,
-9.558000e-05,0.120000,-9.558000e-05,-0.800000,
-9.556000e-05,0.080000,-9.556000e-05,-0.800000,
-9.554000e-05,0.080000,-9.554000e-05,-0.800000,
-9.552000e-05,0.080000,-9.552000e-05,-0.800000,
-9.550000e-05,0.080000,-9.550000e-05,-0.800000,
-9.548000e-05,0.080000,-9.548000e-05,-0.800000,
-9.546000e-05,0.080000,-9.546000e-05,-0.800000,
-9.544000e-05,0.080000,-9.544000e-05,-0.800000,
-9.542000e-05,0.080000,-9.542000e-05,-0.800000,
-9.540000e-05,0.080000,-9.540000e-05,-0.800000,
-9.538000e-05,0.080000,-9.538000e-05,-0.800000,
-9.536000e-05,0.080000,-9.536000e-05,-0.800000,
-9.534000e-05,0.080000,-9.534000e-05,-0.800000,
-9.532000e-05,0.040000,-9.532000e-05,-0.800000,
-9.530000e-05,0.080000,-9.530000e-05,-0.800000,
-9.528000e-05,0.080000,-9.528000e-05,-0.800000,
-9.526000e-05,0.040000,-9.526000e-05,-0.800000,
-9.524000e-05,0.040000,-9.524000e-05,-0.600000,
-9.522000e-05,0.040000,-9.522000e-05,-0.600000,
-9.520000e-05,0.040000,-9.520000e-05,-0.600000,
-9.518000e-05,0.040000,-9.518000e-05,-0.600000,
-9.516000e-05,0.040000,-9.516000e-05,-0.600000,
-9.514000e-05,0.040000,-9.514000e-05,-0.600000,
-9.512000e-05,0.040000,-9.512000e-05,-0.600000,
-9.510000e-05,0.040000,-9.510000e-05,-0.600000,
-9.508000e-05,0.040000,-9.508000e-05,-0.600000,
-9.506000e-05,0.000000,-9.506000e-05,-0.600000,
-9.504000e-05,0.040000,-9.504000e-05,-0.600000,
-9.502000e-05,0.000000,-9.502000e-05,-0.600000,
-9.500000e-05,0.000000,-9.500000e-05,-0.600000,
-9.498000e-05,0.000000,-9.498000e-05,-0.600000,
-9.496000e-05,0.000000,-9.496000e-05,-0.600000,
-9.494000e-05,0.000000,-9.494000e-05,-0.600000,
-9.492000e-05,0.000000,-9.492000e-05,-0.600000,
-9.490000e-05,0.000000,-9.490000e-05,-0.600000,
-9.488000e-05,0.000000,-9.488000e-05,-0.600000,
-9.486000e-05,0.000000,-9.486000e-05,-0.600000,
-9.484000e-05,0.000000,-9.484000e-05,-0.600000,
-9.482000e-05,0.000000,-9.482000e-05,-0.600000,
-9.480000e-05,0.000000,-9.480000e-05,-0.600000,
-9.478000e-05,0.000000,-9.478000e-05,-0.600000,
-9.476000e-05,0.000000,-9.476000e-05,-0.600000,
-9.474000e-05,-0.040000,-9.474000e-05,-0.600000,
-9.472000e-05,-0.040000,-9.472000e-05,-0.600000,
-9.470000e-05,-0.040000,-9.470000e-05,-0.600000,
-9.468000e-05,-0.040000,-9.468000e-05,-0.600000,
-9.466000e-05,-0.040000,-9.466000e-05,-0.600000,
-9.464000e-05,-0.040000,-9.464000e-05,-0.200000,
-9.462000e-05,-0.040000,-9.462000e-05,-0.600000,
-9.460000e-05,-0.040000,-9.460000e-05,-0.200000,
-9.458000e-05,-0.040000,-9.458000e-05,-0.200000,
-9.456000e-05,-0.040000,-9.456000e-05,-0.600000,
-9.454000e-05,-0.040000,-9.454000e-05,-0.200000,
-9.452000e-05,-0.040000,-9.452000e-05,-0.200000,
-9.450000e-05,-0.040000,-9.450000e-05,-0.200000,
-9.448000e-05,-0.040000,-9.448000e-05,-0.200000,
-9.446000e-05,-0.040000,-9.446000e-05,-0.200000,
-9.444000e-05,-0.080000,-9.444000e-05,-0.200000,
-9.442000e-05,-0.080000,-9.442000e-05,-0.200000,
-9.440000e-05,-0.080000,-9.440000e-05,-0.200000,
-9.438000e-05,-0.080000,-9.438000e-05,-0.200000,
-9.436000e-05,-0.080000,-9.436000e-05,-0.200000,
-9.434000e-05,-0.080000,-9.434000e-05,-0.200000,
-9.432000e-05,-0.080000,-9.432000e-05,-0.200000,
-9.430000e-05,-0.080000,-9.430000e-05,-0.200000,
-9.428000e-05,-0.080000,-9.428000e-05,-0.200000,
-9.426000e-05,-0.080000,-9.426000e-05,-0.200000,
-9.424000e-05,-0.080000,-9.424000e-05,-0.200000,
-9.422000e-05,-0.080000,-9.422000e-05,-0.200000,
-9.420000e-05,-0.080000,-9.420000e-05,-0.200000,
-9.418000e-05,-0.080000,-9.418000e-05,-0.200000,
-9.416000e-05,-0.080000,-9.416000e-05,-0.200000,
-9.414000e-05,-0.120000,-9.414000e-05,-0.200000,
-9.412000e-05,-0.120000,-9.412000e-05,-0.200000,
-9.410000e-05,-0.120000,-9.410000e-05,-0.200000,
-9.408000e-05,-0.120000,-9.408000e-05,-0.200000,
-9.406000e-05,-0.120000,-9.406000e-05,-0.200000,
-9.404000e-05,-0.120000,-9.404000e-05,-0.200000,
-9.402000e-05,-0.120000,-9.402000e-05,-0.200000,
-9.400000e-05,-0.120000,-9.400000e-05,-0.200000,
-9.398000e-05,-0.120000,-9.398000e-05,-0.200000,
-9.396000e-05,-0.120000,-9.396000e-05,0.000000,
-9.394000e-05,-0.120000,-9.394000e-05,0.000000,
-9.392000e-05,-0.120000,-9.392000e-05,0.000000,
-9.390000e-05,-0.120000,-9.390000e-05,0.000000,
-9.388000e-05,-0.160000,-9.388000e-05,0.000000,
-9.386000e-05,-0.160000,-9.386000e-05,0.000000,
-9.384000e-05,-0.160000,-9.384000e-05,0.000000,
-9.382000e-05,-0.160000,-9.382000e-05,0.000000,
-9.380000e-05,-0.160000,-9.380000e-05,0.000000,
-9.378000e-05,-0.160000,-9.378000e-05,0.000000,
-9.376000e-05,-0.160000,-9.376000e-05,0.000000,
-9.374000e-05,-0.160000,-9.374000e-05,0.000000,
-9.372000e-05,-0.160000,-9.372000e-05,0.000000,
-9.370000e-05,-0.160000,-9.370000e-05,0.000000,
-9.368000e-05,-0.160000,-9.368000e-05,0.000000,
-9.366000e-05,-0.160000,-9.366000e-05,0.000000,
-9.364000e-05,-0.160000,-9.364000e-05,0.000000,
-9.362000e-05,-0.160000,-9.362000e-05,0.000000,
-9.360000e-05,-0.160000,-9.360000e-05,0.000000,
-9.358000e-05,-0.200000,-9.358000e-05,0.000000,
-9.356000e-05,-0.200000,-9.356000e-05,0.000000,
-9.354000e-05,-0.200000,-9.354000e-05,0.000000,
-9.352000e-05,-0.200000,-9.352000e-05,0.000000,
-9.350000e-05,-0.200000,-9.350000e-05,0.000000,
-9.348000e-05,-0.200000,-9.348000e-05,0.000000,
-9.346000e-05,-0.200000,-9.346000e-05,0.000000,
-9.344000e-05,-0.200000,-9.344000e-05,0.000000,
-9.342000e-05,-0.200000,-9.342000e-05,0.000000,
-9.340000e-05,-0.200000,-9.340000e-05,0.000000,
-9.338000e-05,-0.200000,-9.338000e-05,0.000000,
-9.336000e-05,-0.200000,-9.336000e-05,0.000000,
-9.334000e-05,-0.240000,-9.334000e-05,0.000000,
-9.332000e-05,-0.200000,-9.332000e-05,0.000000,
-9.330000e-05,-0.240000,-9.330000e-05,0.200000,
-9.328000e-05,-0.240000,-9.328000e-05,0.200000,
-9.326000e-05,-0.240000,-9.326000e-05,0.200000,
-9.324000e-05,-0.240000,-9.324000e-05,0.200000,
-9.322000e-05,-0.240000,-9.322000e-05,0.200000,
-9.320000e-05,-0.240000,-9.320000e-05,0.200000,
-9.318000e-05,-0.240000,-9.318000e-05,0.200000,
-9.316000e-05,-0.240000,-9.316000e-05,0.200000,
-9.314000e-05,-0.240000,-9.314000e-05,0.200000,
-9.312000e-05,-0.240000,-9.312000e-05,0.200000,
-9.310000e-05,-0.240000,-9.310000e-05,0.200000,
-9.308000e-05,-0.240000,-9.308000e-05,0.200000,
-9.306000e-05,-0.240000,-9.306000e-05,0.200000,
-9.304000e-05,-0.280000,-9.304000e-05,0.200000,
-9.302000e-05,-0.280000,-9.302000e-05,0.200000,
-9.300000e-05,-0.280000,-9.300000e-05,0.200000,
-9.298000e-05,-0.280000,-9.298000e-05,0.200000,
-9.296000e-05,-0.280000,-9.296000e-05,0.200000,
-9.294000e-05,-0.280000,-9.294000e-05,0.200000,
-9.292000e-05,-0.280000,-9.292000e-05,0.200000,
-9.290000e-05,-0.280000,-9.290000e-05,0.200000,
-9.288000e-05,-0.280000,-9.288000e-05,0.200000,
-9.286000e-05,-0.280000,-9.286000e-05,0.200000,
-9.284000e-05,-0.280000,-9.284000e-05,0.200000,
-9.282000e-05,-0.280000,-9.282000e-05,0.200000,
-9.280000e-05,-0.280000,-9.280000e-05,0.200000,
-9.278000e-05,-0.320000,-9.278000e-05,0.200000,
-9.276000e-05,-0.320000,-9.276000e-05,0.200000,
-9.274000e-05,-0.280000,-9.274000e-05,0.200000,
-9.272000e-05,-0.320000,-9.272000e-05,0.200000,
-9.270000e-05,-0.320000,-9.270000e-05,0.600000,
-9.268000e-05,-0.320000,-9.268000e-05,0.200000,
-9.266000e-05,-0.320000,-9.266000e-05,0.600000,
-9.264000e-05,-0.320000,-9.264000e-05,0.200000,
-9.262000e-05,-0.320000,-9.262000e-05,0.600000,
-9.260000e-05,-0.320000,-9.260000e-05,0.600000,
-9.258000e-05,-0.320000,-9.258000e-05,0.600000,
-9.256000e-05,-0.320000,-9.256000e-05,0.600000,
-9.254000e-05,-0.320000,-9.254000e-05,0.600000,
-9.252000e-05,-0.320000,-9.252000e-05,0.600000,
-9.250000e-05,-0.320000,-9.250000e-05,0.600000,
-9.248000e-05,-0.320000,-9.248000e-05,0.600000,
-9.246000e-05,-0.360000,-9.246000e-05,0.600000,
-9.244000e-05,-0.360000,-9.244000e-05,0.600000,
-9.242000e-05,-0.360000,-9.242000e-05,0.600000,
-9.240000e-05,-0.360000,-9.240000e-05,0.600000,
-9.238000e-05,-0.360000,-9.238000e-05,0.600000,
-9.236000e-05,-0.360000,-9.236000e-05,0.600000,
-9.234000e-05,-0.360000,-9.234000e-05,0.600000,
-9.232000e-05,-0.360000,-9.232000e-05,0.600000,
-9.230000e-05,-0.360000,-9.230000e-05,0.600000,
-9.228000e-05,-0.360000,-9.228000e-05,0.600000,
-9.226000e-05,-0.360000,-9.226000e-05,0.600000,
-9.224000e-05,-0.360000,-9.224000e-05,0.600000,
-9.222000e-05,-0.360000,-9.222000e-05,0.600000,
-9.220000e-05,-0.360000,-9.220000e-05,0.600000,
-9.218000e-05,-0.440000,-9.218000e-05,0.600000,
-9.216000e-05,-0.360000,-9.216000e-05,0.600000,
