1102_week5_experiment/non-invert.CSV

Format,1.0B,
Memory Length,10000,Memory Length,10000,
IntpDistance,0,IntpDistance,0,
Trigger Address,4999,Trigger Address,4999,
Trigger Level,4.000E-01,Trigger Level,4.000E-01,
Source,CH1,Source,CH2,
Vertical Units,V,Vertical Units,V,
Vertical Units Div,0,Vertical Units Div,0,
Vertical Units Extend Div,16,Vertical Units Extend Div,16,
Label, ,Label, ,
Probe Type,0,Probe Type,0,
Probe Ratio,1.000E+00,Probe Ratio,1.000E+00,
Vertical Scale,1.000E+01,Vertical Scale,1.000E+01,
Vertical Position,0.000E+00,Vertical Position,0.000E+00,
Horizontal Units,S,Horizontal Units,S,
Horizontal Scale,1.000E-04,Horizontal Scale,1.000E-04,
Horizontal Position,0.000E+00,Horizontal Position,0.000E+00,
Horizontal Mode,Main,Horizontal Mode,Main,
SincET Mode,Real Time,SincET Mode,Real Time,
Sampling Period,1.000E-07,Sampling Period,1.000E-07,
Horizontal Old Scale,1.000E-04,Horizontal Old Scale,1.000E-04,
Horizontal Old Position,0.000E+00,Horizontal Old Position,0.000E+00,
Firmware,V1.23,Firmware,V1.23,
Mode,Detail,Mode,Detail,
Waveform Data,,Waveform Data,,
-5.000000e-04,2.000000,-5.000000e-04,8.000000,
-4.999000e-04,2.000000,-4.999000e-04,8.000000,
-4.998000e-04,2.000000,-4.998000e-04,8.000000,
-4.997000e-04,2.000000,-4.997000e-04,7.200000,
-4.996000e-04,2.000000,-4.996000e-04,7.200000,
-4.995000e-04,2.000000,-4.995000e-04,7.200000,
-4.994000e-04,2.000000,-4.994000e-04,8.000000,
-4.993000e-04,2.000000,-4.993000e-04,7.200000,
-4.992000e-04,2.000000,-4.992000e-04,7.200000,
-4.991000e-04,2.000000,-4.991000e-04,7.200000,
-4.990000e-04,2.000000,-4.990000e-04,7.200000,
-4.989000e-04,2.000000,-4.989000e-04,7.200000,
-4.988000e-04,2.000000,-4.988000e-04,7.200000,
-4.987000e-04,2.000000,-4.987000e-04,7.200000,
-4.986000e-04,2.000000,-4.986000e-04,7.200000,
-4.985000e-04,2.000000,-4.985000e-04,7.200000,
-4.984000e-04,2.000000,-4.984000e-04,7.200000,
-4.983000e-04,2.000000,-4.983000e-04,7.200000,
-4.982000e-04,2.000000,-4.982000e-04,7.200000,
-4.981000e-04,2.000000,-4.981000e-04,7.200000,
-4.980000e-04,2.000000,-4.980000e-04,7.200000,
-4.979000e-04,2.000000,-4.979000e-04,7.200000,
-4.978000e-04,2.000000,-4.978000e-04,7.200000,
-4.977000e-04,2.000000,-4.977000e-04,7.200000,
-4.976000e-04,2.000000,-4.976000e-04,7.200000,
-4.975000e-04,2.000000,-4.975000e-04,7.200000,
-4.974000e-04,2.000000,-4.974000e-04,7.200000,
-4.973000e-04,2.000000,-4.973000e-04,7.200000,
-4.972000e-04,2.000000,-4.972000e-04,7.200000,
-4.971000e-04,2.000000,-4.971000e-04,7.200000,
-4.970000e-04,2.000000,-4.970000e-04,7.200000,
-4.969000e-04,2.000000,-4.969000e-04,7.200000,
-4.968000e-04,2.000000,-4.968000e-04,7.200000,
-4.967000e-04,2.000000,-4.967000e-04,7.200000,
-4.966000e-04,2.000000,-4.966000e-04,7.200000,
-4.965000e-04,2.000000,-4.965000e-04,7.200000,
-4.964000e-04,2.000000,-4.964000e-04,7.200000,
-4.963000e-04,2.000000,-4.963000e-04,7.200000,
-4.962000e-04,2.000000,-4.962000e-04,7.200000,
-4.961000e-04,2.000000,-4.961000e-04,7.200000,
-4.960000e-04,2.000000,-4.960000e-04,7.200000,
-4.959000e-04,2.000000,-4.959000e-04,7.200000,
-4.958000e-04,2.000000,-4.958000e-04,7.200000,
-4.957000e-04,2.000000,-4.957000e-04,7.200000,
-4.956000e-04,2.000000,-4.956000e-04,7.200000,
-4.955000e-04,2.000000,-4.955000e-04,7.200000,
-4.954000e-04,2.000000,-4.954000e-04,7.200000,
-4.953000e-04,2.000000,-4.953000e-04,7.200000,
-4.952000e-04,2.000000,-4.952000e-04,6.400000,
-4.951000e-04,2.000000,-4.951000e-04,6.400000,
-4.950000e-04,2.000000,-4.950000e-04,7.200000,
-4.949000e-04,2.000000,-4.949000e-04,6.400000,
-4.948000e-04,2.000000,-4.948000e-04,6.400000,
-4.947000e-04,2.000000,-4.947000e-04,6.400000,
-4.946000e-04,1.200000,-4.946000e-04,6.400000,
-4.945000e-04,2.000000,-4.945000e-04,6.400000,
-4.944000e-04,2.000000,-4.944000e-04,6.400000,
-4.943000e-04,2.000000,-4.943000e-04,6.400000,
-4.942000e-04,2.000000,-4.942000e-04,6.400000,
-4.941000e-04,1.200000,-4.941000e-04,6.400000,
-4.940000e-04,2.000000,-4.940000e-04,6.400000,
-4.939000e-04,2.000000,-4.939000e-04,6.400000,
-4.938000e-04,2.000000,-4.938000e-04,6.400000,
-4.937000e-04,1.200000,-4.937000e-04,6.400000,
-4.936000e-04,2.000000,-4.936000e-04,6.400000,
-4.935000e-04,1.200000,-4.935000e-04,6.400000,
-4.934000e-04,1.200000,-4.934000e-04,6.400000,
-4.933000e-04,1.200000,-4.933000e-04,6.400000,
-4.932000e-04,1.200000,-4.932000e-04,6.400000,
-4.931000e-04,2.000000,-4.931000e-04,6.400000,
-4.930000e-04,1.200000,-4.930000e-04,6.400000,
-4.929000e-04,1.200000,-4.929000e-04,6.400000,
-4.928000e-04,1.200000,-4.928000e-04,6.400000,
-4.927000e-04,1.200000,-4.927000e-04,6.400000,
-4.926000e-04,1.200000,-4.926000e-04,6.400000,
-4.925000e-04,1.200000,-4.925000e-04,6.400000,
-4.924000e-04,1.200000,-4.924000e-04,6.400000,
-4.923000e-04,1.200000,-4.923000e-04,6.400000,
-4.922000e-04,1.200000,-4.922000e-04,6.400000,
-4.921000e-04,1.200000,-4.921000e-04,6.400000,
-4.920000e-04,1.200000,-4.920000e-04,6.400000,
-4.919000e-04,1.200000,-4.919000e-04,6.400000,
-4.918000e-04,1.200000,-4.918000e-04,6.400000,
-4.917000e-04,1.200000,-4.917000e-04,6.400000,
-4.916000e-04,1.200000,-4.916000e-04,6.400000,
-4.915000e-04,1.200000,-4.915000e-04,6.400000,
-4.914000e-04,1.200000,-4.914000e-04,6.400000,
-4.913000e-04,1.200000,-4.913000e-04,6.400000,
-4.912000e-04,1.200000,-4.912000e-04,6.400000,
-4.911000e-04,1.200000,-4.911000e-04,6.400000,
-4.910000e-04,1.200000,-4.910000e-04,6.400000,
-4.909000e-04,1.200000,-4.909000e-04,6.400000,
-4.908000e-04,1.200000,-4.908000e-04,6.400000,
-4.907000e-04,1.200000,-4.907000e-04,5.600000,
-4.906000e-04,1.200000,-4.906000e-04,5.600000,
-4.905000e-04,1.200000,-4.905000e-04,5.600000,
-4.904000e-04,1.200000,-4.904000e-04,5.600000,
-4.903000e-04,1.200000,-4.903000e-04,5.600000,
-4.902000e-04,1.200000,-4.902000e-04,5.600000,
-4.901000e-04,1.200000,-4.901000e-04,5.600000,
-4.900000e-04,1.200000,-4.900000e-04,6.400000,
-4.899000e-04,1.200000,-4.899000e-04,5.600000,
-4.898000e-04,1.200000,-4.898000e-04,5.600000,
-4.897000e-04,1.200000,-4.897000e-04,5.600000,
-4.896000e-04,1.200000,-4.896000e-04,5.600000,
-4.895000e-04,1.200000,-4.895000e-04,5.600000,
-4.894000e-04,1.200000,-4.894000e-04,5.600000,
-4.893000e-04,1.200000,-4.893000e-04,5.600000,
-4.892000e-04,1.200000,-4.892000e-04,5.600000,
-4.891000e-04,1.200000,-4.891000e-04,5.600000,
-4.890000e-04,1.200000,-4.890000e-04,5.600000,
-4.889000e-04,1.200000,-4.889000e-04,5.600000,
-4.888000e-04,1.200000,-4.888000e-04,5.600000,
-4.887000e-04,1.200000,-4.887000e-04,5.600000,
-4.886000e-04,1.200000,-4.886000e-04,5.600000,
-4.885000e-04,1.200000,-4.885000e-04,5.600000,
-4.884000e-04,1.200000,-4.884000e-04,5.600000,
-4.883000e-04,1.200000,-4.883000e-04,5.600000,
-4.882000e-04,1.200000,-4.882000e-04,5.600000,
-4.881000e-04,1.200000,-4.881000e-04,5.600000,
-4.880000e-04,1.200000,-4.880000e-04,5.600000,
-4.879000e-04,1.200000,-4.879000e-04,5.600000,
-4.878000e-04,1.200000,-4.878000e-04,5.600000,
-4.877000e-04,1.200000,-4.877000e-04,5.600000,
-4.876000e-04,1.200000,-4.876000e-04,5.600000,
-4.875000e-04,1.200000,-4.875000e-04,5.600000,
-4.874000e-04,1.200000,-4.874000e-04,5.600000,
-4.873000e-04,1.200000,-4.873000e-04,5.600000,
-4.872000e-04,1.200000,-4.872000e-04,5.600000,
-4.871000e-04,1.200000,-4.871000e-04,5.600000,
-4.870000e-04,1.200000,-4.870000e-04,5.600000,
-4.869000e-04,1.200000,-4.869000e-04,5.600000,
-4.868000e-04,1.200000,-4.868000e-04,5.600000,
-4.867000e-04,1.200000,-4.867000e-04,5.600000,
-4.866000e-04,1.200000,-4.866000e-04,5.600000,
-4.865000e-04,1.200000,-4.865000e-04,5.600000,
-4.864000e-04,1.200000,-4.864000e-04,5.600000,
-4.863000e-04,1.200000,-4.863000e-04,5.600000,
-4.862000e-04,1.200000,-4.862000e-04,5.200000,
-4.861000e-04,1.200000,-4.861000e-04,5.600000,
-4.860000e-04,1.200000,-4.860000e-04,5.200000,
-4.859000e-04,1.200000,-4.859000e-04,5.200000,
-4.858000e-04,1.200000,-4.858000e-04,5.200000,
-4.857000e-04,1.200000,-4.857000e-04,5.200000,
-4.856000e-04,1.200000,-4.856000e-04,5.200000,
-4.855000e-04,1.200000,-4.855000e-04,5.200000,
-4.854000e-04,1.200000,-4.854000e-04,5.200000,
-4.853000e-04,1.200000,-4.853000e-04,5.200000,
-4.852000e-04,1.200000,-4.852000e-04,5.200000,
-4.851000e-04,1.200000,-4.851000e-04,5.200000,
-4.850000e-04,1.200000,-4.850000e-04,5.200000,
-4.849000e-04,1.200000,-4.849000e-04,5.200000,
-4.848000e-04,1.200000,-4.848000e-04,5.200000,
-4.847000e-04,1.200000,-4.847000e-04,5.200000,
-4.846000e-04,1.200000,-4.846000e-04,5.200000,
-4.845000e-04,1.200000,-4.845000e-04,5.200000,
-4.844000e-04,1.200000,-4.844000e-04,5.200000,
-4.843000e-04,1.200000,-4.843000e-04,5.200000,
-4.842000e-04,1.200000,-4.842000e-04,5.200000,
-4.841000e-04,1.200000,-4.841000e-04,5.200000,
-4.840000e-04,1.200000,-4.840000e-04,5.200000,
-4.839000e-04,1.200000,-4.839000e-04,5.200000,
-4.838000e-04,1.200000,-4.838000e-04,5.200000,
-4.837000e-04,1.200000,-4.837000e-04,5.200000,
-4.836000e-04,1.200000,-4.836000e-04,5.200000,
-4.835000e-04,1.200000,-4.835000e-04,5.200000,
-4.834000e-04,1.200000,-4.834000e-04,5.200000,
-4.833000e-04,1.200000,-4.833000e-04,5.200000,
-4.832000e-04,1.200000,-4.832000e-04,5.200000,
-4.831000e-04,1.200000,-4.831000e-04,5.200000,
-4.830000e-04,1.200000,-4.830000e-04,5.200000,
-4.829000e-04,1.200000,-4.829000e-04,5.200000,
-4.828000e-04,1.200000,-4.828000e-04,5.200000,
-4.827000e-04,1.200000,-4.827000e-04,5.200000,
-4.826000e-04,1.200000,-4.826000e-04,5.200000,
-4.825000e-04,1.200000,-4.825000e-04,4.400000,
-4.824000e-04,1.200000,-4.824000e-04,4.400000,
-4.823000e-04,1.200000,-4.823000e-04,4.400000,
-4.822000e-04,1.200000,-4.822000e-04,4.400000,
-4.821000e-04,1.200000,-4.821000e-04,4.400000,
-4.820000e-04,1.200000,-4.820000e-04,4.400000,
-4.819000e-04,1.200000,-4.819000e-04,4.400000,
-4.818000e-04,1.200000,-4.818000e-04,4.400000,
-4.817000e-04,1.200000,-4.817000e-04,4.400000,
-4.816000e-04,1.200000,-4.816000e-04,4.400000,
-4.815000e-04,1.200000,-4.815000e-04,4.400000,
-4.814000e-04,1.200000,-4.814000e-04,4.400000,
-4.813000e-04,1.200000,-4.813000e-04,4.400000,
-4.812000e-04,1.200000,-4.812000e-04,4.400000,
-4.811000e-04,1.200000,-4.811000e-04,4.400000,
-4.810000e-04,1.200000,-4.810000e-04,4.400000,
-4.809000e-04,1.200000,-4.809000e-04,4.400000,
-4.808000e-04,1.200000,-4.808000e-04,4.400000,
-4.807000e-04,1.200000,-4.807000e-04,4.400000,
-4.806000e-04,1.200000,-4.806000e-04,4.400000,
-4.805000e-04,1.200000,-4.805000e-04,4.400000,
-4.804000e-04,1.200000,-4.804000e-04,4.400000,
-4.803000e-04,1.200000,-4.803000e-04,4.400000,
-4.802000e-04,1.200000,-4.802000e-04,4.400000,
-4.801000e-04,1.200000,-4.801000e-04,4.400000,
-4.800000e-04,1.200000,-4.800000e-04,4.400000,
-4.799000e-04,1.200000,-4.799000e-04,4.400000,
-4.798000e-04,1.200000,-4.798000e-04,4.400000,
-4.797000e-04,1.200000,-4.797000e-04,4.400000,
-4.796000e-04,1.200000,-4.796000e-04,4.400000,
-4.795000e-04,1.200000,-4.795000e-04,4.400000,
-4.794000e-04,1.200000,-4.794000e-04,4.400000,
-4.793000e-04,1.200000,-4.793000e-04,4.400000,
-4.792000e-04,1.200000,-4.792000e-04,4.400000,
-4.791000e-04,1.200000,-4.791000e-04,4.400000,
-4.790000e-04,1.200000,-4.790000e-04,4.400000,
-4.789000e-04,1.200000,-4.789000e-04,4.400000,
-4.788000e-04,1.200000,-4.788000e-04,4.400000,
-4.787000e-04,0.800000,-4.787000e-04,4.400000,
-4.786000e-04,0.800000,-4.786000e-04,3.600000,
-4.785000e-04,0.800000,-4.785000e-04,4.400000,
-4.784000e-04,1.200000,-4.784000e-04,3.600000,
-4.783000e-04,1.200000,-4.783000e-04,3.600000,
-4.782000e-04,1.200000,-4.782000e-04,3.600000,
-4.781000e-04,1.200000,-4.781000e-04,3.600000,
-4.780000e-04,0.800000,-4.780000e-04,3.600000,
-4.779000e-04,0.800000,-4.779000e-04,3.600000,
-4.778000e-04,0.800000,-4.778000e-04,3.600000,
-4.777000e-04,0.800000,-4.777000e-04,3.600000,
-4.776000e-04,0.800000,-4.776000e-04,3.600000,
-4.775000e-04,0.800000,-4.775000e-04,3.600000,
-4.774000e-04,0.800000,-4.774000e-04,3.600000,
-4.773000e-04,0.800000,-4.773000e-04,3.600000,
-4.772000e-04,1.200000,-4.772000e-04,3.600000,
-4.771000e-04,1.200000,-4.771000e-04,3.600000,
-4.770000e-04,0.800000,-4.770000e-04,3.600000,
-4.769000e-04,0.800000,-4.769000e-04,3.600000,
-4.768000e-04,0.800000,-4.768000e-04,3.600000,
-4.767000e-04,0.800000,-4.767000e-04,3.600000,
-4.766000e-04,0.800000,-4.766000e-04,3.600000,
-4.765000e-04,0.800000,-4.765000e-04,3.600000,
-4.764000e-04,0.800000,-4.764000e-04,3.600000,
-4.763000e-04,0.800000,-4.763000e-04,3.600000,
-4.762000e-04,0.800000,-4.762000e-04,3.600000,
-4.761000e-04,0.800000,-4.761000e-04,3.600000,
-4.760000e-04,0.800000,-4.760000e-04,3.600000,
-4.759000e-04,0.800000,-4.759000e-04,3.600000,
-4.758000e-04,0.800000,-4.758000e-04,3.600000,
-4.757000e-04,0.800000,-4.757000e-04,3.600000,
-4.756000e-04,0.800000,-4.756000e-04,3.600000,
-4.755000e-04,0.800000,-4.755000e-04,3.600000,
-4.754000e-04,0.800000,-4.754000e-04,3.600000,
-4.753000e-04,0.800000,-4.753000e-04,3.600000,
-4.752000e-04,0.800000,-4.752000e-04,3.600000,
-4.751000e-04,0.800000,-4.751000e-04,3.600000,
-4.750000e-04,0.800000,-4.750000e-04,3.600000,
-4.749000e-04,0.800000,-4.749000e-04,3.600000,
-4.748000e-04,0.800000,-4.748000e-04,3.600000,
-4.747000e-04,0.800000,-4.747000e-04,3.600000,
-4.746000e-04,0.800000,-4.746000e-04,2.800000,
-4.745000e-04,0.800000,-4.745000e-04,3.600000,
-4.744000e-04,0.800000,-4.744000e-04,2.800000,
-4.743000e-04,0.800000,-4.743000e-04,2.800000,
-4.742000e-04,0.800000,-4.742000e-04,2.800000,
-4.741000e-04,0.800000,-4.741000e-04,2.800000,
-4.740000e-04,0.800000,-4.740000e-04,2.800000,
-4.739000e-04,0.800000,-4.739000e-04,2.800000,
-4.738000e-04,0.800000,-4.738000e-04,2.800000,
-4.737000e-04,0.800000,-4.737000e-04,2.800000,
-4.736000e-04,0.800000,-4.736000e-04,2.800000,
-4.735000e-04,0.800000,-4.735000e-04,2.800000,
-4.734000e-04,0.800000,-4.734000e-04,2.800000,
-4.733000e-04,0.800000,-4.733000e-04,2.800000,
-4.732000e-04,0.800000,-4.732000e-04,2.800000,
-4.731000e-04,0.800000,-4.731000e-04,2.800000,
-4.730000e-04,0.800000,-4.730000e-04,2.800000,
-4.729000e-04,0.800000,-4.729000e-04,2.800000,
-4.728000e-04,0.800000,-4.728000e-04,2.800000,
-4.727000e-04,0.800000,-4.727000e-04,2.800000,
-4.726000e-04,0.800000,-4.726000e-04,2.800000,
-4.725000e-04,0.800000,-4.725000e-04,2.800000,
-4.724000e-04,0.800000,-4.724000e-04,2.800000,
-4.723000e-04,0.800000,-4.723000e-04,2.800000,
-4.722000e-04,0.800000,-4.722000e-04,2.800000,
-4.721000e-04,0.800000,-4.721000e-04,2.800000,
-4.720000e-04,0.800000,-4.720000e-04,2.800000,
-4.719000e-04,0.800000,-4.719000e-04,2.800000,
-4.718000e-04,0.800000,-4.718000e-04,2.800000,
-4.717000e-04,0.800000,-4.717000e-04,2.800000,
-4.716000e-04,0.800000,-4.716000e-04,2.800000,
-4.715000e-04,0.800000,-4.715000e-04,2.800000,
-4.714000e-04,0.800000,-4.714000e-04,2.800000,
-4.713000e-04,0.800000,-4.713000e-04,2.800000,
-4.712000e-04,0.800000,-4.712000e-04,2.800000,
-4.711000e-04,0.800000,-4.711000e-04,2.800000,
-4.710000e-04,0.800000,-4.710000e-04,2.800000,
-4.709000e-04,0.800000,-4.709000e-04,2.000000,
-4.708000e-04,0.800000,-4.708000e-04,2.800000,
-4.707000e-04,0.800000,-4.707000e-04,2.000000,
-4.706000e-04,0.800000,-4.706000e-04,2.000000,
-4.705000e-04,0.800000,-4.705000e-04,2.000000,
-4.704000e-04,0.800000,-4.704000e-04,2.000000,
-4.703000e-04,0.800000,-4.703000e-04,2.000000,
-4.702000e-04,0.800000,-4.702000e-04,2.000000,
-4.701000e-04,0.800000,-4.701000e-04,2.000000,
-4.700000e-04,0.800000,-4.700000e-04,2.000000,
-4.699000e-04,0.800000,-4.699000e-04,2.000000,
-4.698000e-04,0.800000,-4.698000e-04,2.000000,
-4.697000e-04,0.800000,-4.697000e-04,2.000000,
-4.696000e-04,0.800000,-4.696000e-04,2.000000,
-4.695000e-04,0.800000,-4.695000e-04,2.000000,
-4.694000e-04,0.800000,-4.694000e-04,2.000000,
-4.693000e-04,0.800000,-4.693000e-04,2.000000,
-4.692000e-04,0.800000,-4.692000e-04,2.000000,
-4.691000e-04,0.800000,-4.691000e-04,2.000000,
-4.690000e-04,0.800000,-4.690000e-04,2.000000,
-4.689000e-04,0.800000,-4.689000e-04,2.000000,
-4.688000e-04,0.800000,-4.688000e-04,2.000000,
-4.687000e-04,0.800000,-4.687000e-04,2.000000,
-4.686000e-04,0.800000,-4.686000e-04,2.000000,
-4.685000e-04,0.800000,-4.685000e-04,2.000000,
-4.684000e-04,0.800000,-4.684000e-04,2.000000,
-4.683000e-04,0.800000,-4.683000e-04,2.000000,
-4.682000e-04,0.800000,-4.682000e-04,2.000000,
-4.681000e-04,0.800000,-4.681000e-04,2.000000,
-4.680000e-04,0.800000,-4.680000e-04,2.000000,
-4.679000e-04,0.800000,-4.679000e-04,2.000000,
-4.678000e-04,0.800000,-4.678000e-04,2.000000,
-4.677000e-04,0.800000,-4.677000e-04,2.000000,
-4.676000e-04,0.800000,-4.676000e-04,2.000000,
-4.675000e-04,0.800000,-4.675000e-04,2.000000,
-4.674000e-04,0.800000,-4.674000e-04,2.000000,
-4.673000e-04,0.800000,-4.673000e-04,1.600000,
-4.672000e-04,0.800000,-4.672000e-04,1.600000,
-4.671000e-04,0.800000,-4.671000e-04,1.600000,
-4.670000e-04,0.800000,-4.670000e-04,1.600000,
-4.669000e-04,0.800000,-4.669000e-04,1.600000,
-4.668000e-04,0.800000,-4.668000e-04,1.600000,
-4.667000e-04,0.800000,-4.667000e-04,1.600000,
-4.666000e-04,0.800000,-4.666000e-04,1.600000,
-4.665000e-04,0.800000,-4.665000e-04,1.600000,
-4.664000e-04,0.800000,-4.664000e-04,1.600000,
-4.663000e-04,0.800000,-4.663000e-04,1.600000,
-4.662000e-04,0.800000,-4.662000e-04,1.600000,
-4.661000e-04,0.800000,-4.661000e-04,1.600000,
-4.660000e-04,0.800000,-4.660000e-04,1.600000,
-4.659000e-04,0.800000,-4.659000e-04,1.600000,
-4.658000e-04,0.800000,-4.658000e-04,1.600000,
-4.657000e-04,0.800000,-4.657000e-04,1.600000,
-4.656000e-04,0.800000,-4.656000e-04,1.600000,
-4.655000e-04,0.000000,-4.655000e-04,1.600000,
-4.654000e-04,0.800000,-4.654000e-04,1.600000,
-4.653000e-04,0.800000,-4.653000e-04,1.600000,
-4.652000e-04,0.800000,-4.652000e-04,1.600000,
-4.651000e-04,0.000000,-4.651000e-04,1.600000,
-4.650000e-04,0.000000,-4.650000e-04,1.600000,
-4.649000e-04,0.000000,-4.649000e-04,1.600000,
-4.648000e-04,0.000000,-4.648000e-04,1.600000,
-4.647000e-04,0.000000,-4.647000e-04,1.600000,
-4.646000e-04,0.000000,-4.646000e-04,1.600000,
-4.645000e-04,0.000000,-4.645000e-04,1.600000,
-4.644000e-04,0.000000,-4.644000e-04,1.600000,
-4.643000e-04,0.800000,-4.643000e-04,1.600000,
-4.642000e-04,0.000000,-4.642000e-04,1.600000,
-4.641000e-04,0.000000,-4.641000e-04,1.600000,
-4.640000e-04,0.000000,-4.640000e-04,1.600000,
-4.639000e-04,0.000000,-4.639000e-04,1.600000,
-4.638000e-04,0.000000,-4.638000e-04,1.600000,
-4.637000e-04,0.000000,-4.637000e-04,0.800000,
-4.636000e-04,0.000000,-4.636000e-04,0.800000,
-4.635000e-04,0.000000,-4.635000e-04,0.800000,
-4.634000e-04,0.000000,-4.634000e-04,0.800000,
-4.633000e-04,0.000000,-4.633000e-04,0.800000,
-4.632000e-04,0.000000,-4.632000e-04,0.800000,
-4.631000e-04,0.000000,-4.631000e-04,0.800000,
-4.630000e-04,0.000000,-4.630000e-04,0.800000,
-4.629000e-04,0.000000,-4.629000e-04,0.800000,
-4.628000e-04,0.000000,-4.628000e-04,0.800000,
-4.627000e-04,0.000000,-4.627000e-04,0.800000,
-4.626000e-04,0.000000,-4.626000e-04,0.800000,
-4.625000e-04,0.000000,-4.625000e-04,0.800000,
-4.624000e-04,0.000000,-4.624000e-04,0.800000,
-4.623000e-04,0.000000,-4.623000e-04,0.800000,
-4.622000e-04,0.000000,-4.622000e-04,0.800000,
-4.621000e-04,0.000000,-4.621000e-04,0.800000,
-4.620000e-04,0.000000,-4.620000e-04,0.800000,
-4.619000e-04,0.000000,-4.619000e-04,0.800000,
-4.618000e-04,0.000000,-4.618000e-04,0.800000,
-4.617000e-04,0.000000,-4.617000e-04,0.800000,
-4.616000e-04,0.000000,-4.616000e-04,0.800000,
-4.615000e-04,0.000000,-4.615000e-04,0.800000,
-4.614000e-04,0.000000,-4.614000e-04,0.800000,
-4.613000e-04,0.000000,-4.613000e-04,0.800000,
-4.612000e-04,0.000000,-4.612000e-04,0.800000,
-4.611000e-04,0.000000,-4.611000e-04,0.800000,
-4.610000e-04,0.000000,-4.610000e-04,0.800000,
-4.609000e-04,0.000000,-4.609000e-04,0.800000,
-4.608000e-04,0.000000,-4.608000e-04,0.800000,
-4.607000e-04,0.000000,-4.607000e-04,0.800000,
-4.606000e-04,0.000000,-4.606000e-04,0.800000,
-4.605000e-04,0.000000,-4.605000e-04,0.800000,
-4.604000e-04,0.000000,-4.604000e-04,0.800000,
-4.603000e-04,0.000000,-4.603000e-04,0.800000,
-4.602000e-04,0.000000,-4.602000e-04,0.000000,
-4.601000e-04,0.000000,-4.601000e-04,0.000000,
-4.600000e-04,0.000000,-4.600000e-04,0.000000,
-4.599000e-04,0.000000,-4.599000e-04,0.000000,
-4.598000e-04,0.000000,-4.598000e-04,0.000000,
