1102_week3_experiment/ALL0002.CSV

Format,1.0B,
Memory Length,10000,Memory Length,10000,
IntpDistance,0,IntpDistance,0,
Trigger Address,4999,Trigger Address,4999,
Trigger Level,-8.000E-02,Trigger Level,-8.000E-02,
Source,CH1,Source,CH2,
Vertical Units,V,Vertical Units,V,
Vertical Units Div,0,Vertical Units Div,0,
Vertical Units Extend Div,16,Vertical Units Extend Div,16,
Label, ,Label, ,
Probe Type,0,Probe Type,0,
Probe Ratio,1.000E+00,Probe Ratio,1.000E+00,
Vertical Scale,2.000E+00,Vertical Scale,2.000E+00,
Vertical Position,0.000E+00,Vertical Position,0.000E+00,
Horizontal Units,S,Horizontal Units,S,
Horizontal Scale,2.000E-06,Horizontal Scale,2.000E-06,
Horizontal Position,0.000E+00,Horizontal Position,0.000E+00,
Horizontal Mode,Main,Horizontal Mode,Main,
SincET Mode,Real Time,SincET Mode,Real Time,
Sampling Period,2.000E-09,Sampling Period,2.000E-09,
Horizontal Old Scale,2.000E-06,Horizontal Old Scale,2.000E-06,
Horizontal Old Position,0.000E+00,Horizontal Old Position,0.000E+00,
Firmware,V1.23,Firmware,V1.23,
Mode,Detail,Mode,Detail,
Waveform Data,,Waveform Data,,
-1.000000e-05,-1.840000,-1.000000e-05,-2.320000,
-9.998000e-06,-1.840000,-9.998000e-06,-2.320000,
-9.996000e-06,-1.840000,-9.996000e-06,-2.320000,
-9.994000e-06,-1.840000,-9.994000e-06,-2.320000,
-9.992000e-06,-1.840000,-9.992000e-06,-2.320000,
-9.990000e-06,-1.840000,-9.990000e-06,-2.320000,
-9.988000e-06,-1.840000,-9.988000e-06,-2.320000,
-9.986000e-06,-1.840000,-9.986000e-06,-2.320000,
-9.984000e-06,-1.840000,-9.984000e-06,-2.320000,
-9.982000e-06,-1.840000,-9.982000e-06,-2.320000,
-9.980000e-06,-1.840000,-9.980000e-06,-2.320000,
-9.978000e-06,-1.840000,-9.978000e-06,-2.320000,
-9.976000e-06,-1.840000,-9.976000e-06,-2.320000,
-9.974000e-06,-1.920000,-9.974000e-06,-2.320000,
-9.972000e-06,-1.920000,-9.972000e-06,-2.320000,
-9.970000e-06,-1.920000,-9.970000e-06,-2.320000,
-9.968000e-06,-1.920000,-9.968000e-06,-2.320000,
-9.966000e-06,-1.920000,-9.966000e-06,-2.320000,
-9.964000e-06,-1.920000,-9.964000e-06,-2.320000,
-9.962000e-06,-1.920000,-9.962000e-06,-2.320000,
-9.960000e-06,-1.920000,-9.960000e-06,-2.320000,
-9.958000e-06,-1.920000,-9.958000e-06,-2.320000,
-9.956000e-06,-1.920000,-9.956000e-06,-2.320000,
-9.954000e-06,-1.920000,-9.954000e-06,-2.320000,
-9.952000e-06,-1.920000,-9.952000e-06,-2.320000,
-9.950000e-06,-1.920000,-9.950000e-06,-2.320000,
-9.948000e-06,-1.920000,-9.948000e-06,-2.320000,
-9.946000e-06,-1.920000,-9.946000e-06,-2.320000,
-9.944000e-06,-1.920000,-9.944000e-06,-2.320000,
-9.942000e-06,-1.920000,-9.942000e-06,-2.320000,
-9.940000e-06,-1.920000,-9.940000e-06,-2.320000,
-9.938000e-06,-1.920000,-9.938000e-06,-2.320000,
-9.936000e-06,-1.920000,-9.936000e-06,-2.320000,
-9.934000e-06,-1.920000,-9.934000e-06,-2.320000,
-9.932000e-06,-1.920000,-9.932000e-06,-2.320000,
-9.930000e-06,-1.920000,-9.930000e-06,-2.320000,
-9.928000e-06,-1.920000,-9.928000e-06,-2.320000,
-9.926000e-06,-2.000000,-9.926000e-06,-2.320000,
-9.924000e-06,-2.000000,-9.924000e-06,-2.320000,
-9.922000e-06,-2.000000,-9.922000e-06,-2.320000,
-9.920000e-06,-2.000000,-9.920000e-06,-2.320000,
-9.918000e-06,-2.000000,-9.918000e-06,-2.320000,
-9.916000e-06,-2.000000,-9.916000e-06,-2.320000,
-9.914000e-06,-2.000000,-9.914000e-06,-2.320000,
-9.912000e-06,-2.000000,-9.912000e-06,-2.320000,
-9.910000e-06,-2.000000,-9.910000e-06,-2.320000,
-9.908000e-06,-2.000000,-9.908000e-06,-2.320000,
-9.906000e-06,-2.000000,-9.906000e-06,-2.320000,
-9.904000e-06,-2.000000,-9.904000e-06,-2.320000,
-9.902000e-06,-2.000000,-9.902000e-06,-2.320000,
-9.900000e-06,-2.000000,-9.900000e-06,-2.320000,
-9.898000e-06,-2.000000,-9.898000e-06,-2.320000,
-9.896000e-06,-2.000000,-9.896000e-06,-2.320000,
-9.894000e-06,-2.000000,-9.894000e-06,-2.320000,
-9.892000e-06,-2.000000,-9.892000e-06,-2.320000,
-9.890000e-06,-2.000000,-9.890000e-06,-2.320000,
-9.888000e-06,-2.000000,-9.888000e-06,-2.320000,
-9.886000e-06,-2.000000,-9.886000e-06,-2.320000,
-9.884000e-06,-2.000000,-9.884000e-06,-2.320000,
-9.882000e-06,-2.000000,-9.882000e-06,-2.320000,
-9.880000e-06,-2.000000,-9.880000e-06,-2.320000,
-9.878000e-06,-2.000000,-9.878000e-06,-2.320000,
-9.876000e-06,-2.000000,-9.876000e-06,-2.320000,
-9.874000e-06,-2.000000,-9.874000e-06,-2.320000,
-9.872000e-06,-2.000000,-9.872000e-06,-2.320000,
-9.870000e-06,-2.000000,-9.870000e-06,-2.320000,
-9.868000e-06,-2.000000,-9.868000e-06,-2.320000,
-9.866000e-06,-2.000000,-9.866000e-06,-2.320000,
-9.864000e-06,-2.000000,-9.864000e-06,-2.320000,
-9.862000e-06,-2.000000,-9.862000e-06,-2.320000,
-9.860000e-06,-2.000000,-9.860000e-06,-2.240000,
-9.858000e-06,-2.000000,-9.858000e-06,-2.240000,
-9.856000e-06,-2.080000,-9.856000e-06,-2.320000,
-9.854000e-06,-2.080000,-9.854000e-06,-2.320000,
-9.852000e-06,-2.080000,-9.852000e-06,-2.320000,
-9.850000e-06,-2.080000,-9.850000e-06,-2.320000,
-9.848000e-06,-2.080000,-9.848000e-06,-2.320000,
-9.846000e-06,-2.080000,-9.846000e-06,-2.320000,
-9.844000e-06,-2.080000,-9.844000e-06,-2.320000,
-9.842000e-06,-2.080000,-9.842000e-06,-2.240000,
-9.840000e-06,-2.080000,-9.840000e-06,-2.240000,
-9.838000e-06,-2.080000,-9.838000e-06,-2.240000,
-9.836000e-06,-2.080000,-9.836000e-06,-2.240000,
-9.834000e-06,-2.080000,-9.834000e-06,-2.240000,
-9.832000e-06,-2.080000,-9.832000e-06,-2.240000,
-9.830000e-06,-2.080000,-9.830000e-06,-2.240000,
-9.828000e-06,-2.080000,-9.828000e-06,-2.240000,
-9.826000e-06,-2.080000,-9.826000e-06,-2.240000,
-9.824000e-06,-2.080000,-9.824000e-06,-2.240000,
-9.822000e-06,-2.080000,-9.822000e-06,-2.240000,
-9.820000e-06,-2.080000,-9.820000e-06,-2.240000,
-9.818000e-06,-2.080000,-9.818000e-06,-2.240000,
-9.816000e-06,-2.080000,-9.816000e-06,-2.240000,
-9.814000e-06,-2.080000,-9.814000e-06,-2.240000,
-9.812000e-06,-2.080000,-9.812000e-06,-2.240000,
-9.810000e-06,-2.080000,-9.810000e-06,-2.240000,
-9.808000e-06,-2.080000,-9.808000e-06,-2.240000,
-9.806000e-06,-2.160000,-9.806000e-06,-2.240000,
-9.804000e-06,-2.160000,-9.804000e-06,-2.240000,
-9.802000e-06,-2.160000,-9.802000e-06,-2.240000,
-9.800000e-06,-2.160000,-9.800000e-06,-2.240000,
-9.798000e-06,-2.160000,-9.798000e-06,-2.240000,
-9.796000e-06,-2.160000,-9.796000e-06,-2.240000,
-9.794000e-06,-2.160000,-9.794000e-06,-2.160000,
-9.792000e-06,-2.160000,-9.792000e-06,-2.160000,
-9.790000e-06,-2.160000,-9.790000e-06,-2.160000,
-9.788000e-06,-2.160000,-9.788000e-06,-2.160000,
-9.786000e-06,-2.160000,-9.786000e-06,-2.160000,
-9.784000e-06,-2.160000,-9.784000e-06,-2.160000,
-9.782000e-06,-2.160000,-9.782000e-06,-2.160000,
-9.780000e-06,-2.160000,-9.780000e-06,-2.160000,
-9.778000e-06,-2.160000,-9.778000e-06,-2.160000,
-9.776000e-06,-2.160000,-9.776000e-06,-2.160000,
-9.774000e-06,-2.160000,-9.774000e-06,-2.160000,
-9.772000e-06,-2.160000,-9.772000e-06,-2.160000,
-9.770000e-06,-2.160000,-9.770000e-06,-2.160000,
-9.768000e-06,-2.160000,-9.768000e-06,-2.160000,
-9.766000e-06,-2.160000,-9.766000e-06,-2.160000,
-9.764000e-06,-2.160000,-9.764000e-06,-2.160000,
-9.762000e-06,-2.160000,-9.762000e-06,-2.160000,
-9.760000e-06,-2.160000,-9.760000e-06,-2.160000,
-9.758000e-06,-2.240000,-9.758000e-06,-2.160000,
-9.756000e-06,-2.240000,-9.756000e-06,-2.160000,
-9.754000e-06,-2.240000,-9.754000e-06,-2.080000,
-9.752000e-06,-2.240000,-9.752000e-06,-2.080000,
-9.750000e-06,-2.240000,-9.750000e-06,-2.080000,
-9.748000e-06,-2.240000,-9.748000e-06,-2.080000,
-9.746000e-06,-2.240000,-9.746000e-06,-2.080000,
-9.744000e-06,-2.240000,-9.744000e-06,-2.080000,
-9.742000e-06,-2.240000,-9.742000e-06,-2.080000,
-9.740000e-06,-2.240000,-9.740000e-06,-2.080000,
-9.738000e-06,-2.240000,-9.738000e-06,-2.080000,
-9.736000e-06,-2.240000,-9.736000e-06,-2.080000,
-9.734000e-06,-2.240000,-9.734000e-06,-2.080000,
-9.732000e-06,-2.240000,-9.732000e-06,-2.080000,
-9.730000e-06,-2.240000,-9.730000e-06,-1.920000,
-9.728000e-06,-2.240000,-9.728000e-06,-1.920000,
-9.726000e-06,-2.240000,-9.726000e-06,-1.920000,
-9.724000e-06,-2.240000,-9.724000e-06,-1.920000,
-9.722000e-06,-2.320000,-9.722000e-06,-1.920000,
-9.720000e-06,-2.320000,-9.720000e-06,-1.920000,
-9.718000e-06,-2.320000,-9.718000e-06,-1.920000,
-9.716000e-06,-2.240000,-9.716000e-06,-1.840000,
-9.714000e-06,-2.240000,-9.714000e-06,-1.840000,
-9.712000e-06,-2.320000,-9.712000e-06,-1.840000,
-9.710000e-06,-2.320000,-9.710000e-06,-1.840000,
-9.708000e-06,-2.320000,-9.708000e-06,-1.840000,
-9.706000e-06,-2.320000,-9.706000e-06,-1.840000,
-9.704000e-06,-2.320000,-9.704000e-06,-1.840000,
-9.702000e-06,-2.320000,-9.702000e-06,-1.840000,
-9.700000e-06,-2.320000,-9.700000e-06,-1.840000,
-9.698000e-06,-2.320000,-9.698000e-06,-1.840000,
-9.696000e-06,-2.320000,-9.696000e-06,-1.840000,
-9.694000e-06,-2.320000,-9.694000e-06,-1.840000,
-9.692000e-06,-2.320000,-9.692000e-06,-1.760000,
-9.690000e-06,-2.320000,-9.690000e-06,-1.760000,
-9.688000e-06,-2.320000,-9.688000e-06,-1.760000,
-9.686000e-06,-2.320000,-9.686000e-06,-1.760000,
-9.684000e-06,-2.320000,-9.684000e-06,-1.760000,
-9.682000e-06,-2.320000,-9.682000e-06,-1.760000,
-9.680000e-06,-2.320000,-9.680000e-06,-1.680000,
-9.678000e-06,-2.320000,-9.678000e-06,-1.680000,
-9.676000e-06,-2.320000,-9.676000e-06,-1.680000,
-9.674000e-06,-2.400000,-9.674000e-06,-1.680000,
-9.672000e-06,-2.400000,-9.672000e-06,-1.680000,
-9.670000e-06,-2.400000,-9.670000e-06,-1.680000,
-9.668000e-06,-2.400000,-9.668000e-06,-1.680000,
-9.666000e-06,-2.400000,-9.666000e-06,-1.680000,
-9.664000e-06,-2.400000,-9.664000e-06,-1.680000,
-9.662000e-06,-2.400000,-9.662000e-06,-1.600000,
-9.660000e-06,-2.400000,-9.660000e-06,-1.600000,
-9.658000e-06,-2.400000,-9.658000e-06,-1.600000,
-9.656000e-06,-2.400000,-9.656000e-06,-1.600000,
-9.654000e-06,-2.400000,-9.654000e-06,-1.600000,
-9.652000e-06,-2.400000,-9.652000e-06,-1.600000,
-9.650000e-06,-2.400000,-9.650000e-06,-1.600000,
-9.648000e-06,-2.480000,-9.648000e-06,-1.600000,
-9.646000e-06,-2.480000,-9.646000e-06,-1.600000,
-9.644000e-06,-2.400000,-9.644000e-06,-1.520000,
-9.642000e-06,-2.400000,-9.642000e-06,-1.520000,
-9.640000e-06,-2.400000,-9.640000e-06,-1.520000,
-9.638000e-06,-2.480000,-9.638000e-06,-1.520000,
-9.636000e-06,-2.480000,-9.636000e-06,-1.520000,
-9.634000e-06,-2.400000,-9.634000e-06,-1.520000,
-9.632000e-06,-2.480000,-9.632000e-06,-1.520000,
-9.630000e-06,-2.480000,-9.630000e-06,-1.520000,
-9.628000e-06,-2.400000,-9.628000e-06,-1.360000,
-9.626000e-06,-2.480000,-9.626000e-06,-1.520000,
-9.624000e-06,-2.480000,-9.624000e-06,-1.520000,
-9.622000e-06,-2.480000,-9.622000e-06,-1.520000,
-9.620000e-06,-2.480000,-9.620000e-06,-1.360000,
-9.618000e-06,-2.480000,-9.618000e-06,-1.360000,
-9.616000e-06,-2.480000,-9.616000e-06,-1.360000,
-9.614000e-06,-2.480000,-9.614000e-06,-1.360000,
-9.612000e-06,-2.480000,-9.612000e-06,-1.360000,
-9.610000e-06,-2.480000,-9.610000e-06,-1.360000,
-9.608000e-06,-2.480000,-9.608000e-06,-1.360000,
-9.606000e-06,-2.480000,-9.606000e-06,-1.360000,
-9.604000e-06,-2.480000,-9.604000e-06,-1.280000,
-9.602000e-06,-2.480000,-9.602000e-06,-1.280000,
-9.600000e-06,-2.480000,-9.600000e-06,-1.280000,
-9.598000e-06,-2.480000,-9.598000e-06,-1.280000,
-9.596000e-06,-2.480000,-9.596000e-06,-1.280000,
-9.594000e-06,-2.480000,-9.594000e-06,-1.280000,
-9.592000e-06,-2.480000,-9.592000e-06,-1.280000,
-9.590000e-06,-2.640000,-9.590000e-06,-1.280000,
-9.588000e-06,-2.640000,-9.588000e-06,-1.280000,
-9.586000e-06,-2.640000,-9.586000e-06,-1.280000,
-9.584000e-06,-2.480000,-9.584000e-06,-1.200000,
-9.582000e-06,-2.480000,-9.582000e-06,-1.200000,
-9.580000e-06,-2.480000,-9.580000e-06,-1.200000,
-9.578000e-06,-2.640000,-9.578000e-06,-1.200000,
-9.576000e-06,-2.640000,-9.576000e-06,-1.200000,
-9.574000e-06,-2.640000,-9.574000e-06,-1.200000,
-9.572000e-06,-2.640000,-9.572000e-06,-1.200000,
-9.570000e-06,-2.640000,-9.570000e-06,-1.200000,
-9.568000e-06,-2.640000,-9.568000e-06,-1.200000,
-9.566000e-06,-2.640000,-9.566000e-06,-1.200000,
-9.564000e-06,-2.640000,-9.564000e-06,-1.200000,
-9.562000e-06,-2.640000,-9.562000e-06,-1.200000,
-9.560000e-06,-2.640000,-9.560000e-06,-1.200000,
-9.558000e-06,-2.640000,-9.558000e-06,-1.200000,
-9.556000e-06,-2.640000,-9.556000e-06,-1.120000,
-9.554000e-06,-2.640000,-9.554000e-06,-1.120000,
-9.552000e-06,-2.640000,-9.552000e-06,-1.120000,
-9.550000e-06,-2.640000,-9.550000e-06,-1.120000,
-9.548000e-06,-2.640000,-9.548000e-06,-1.120000,
-9.546000e-06,-2.640000,-9.546000e-06,-1.120000,
-9.544000e-06,-2.640000,-9.544000e-06,-1.120000,
-9.542000e-06,-2.640000,-9.542000e-06,-1.120000,
-9.540000e-06,-2.640000,-9.540000e-06,-1.120000,
-9.538000e-06,-2.640000,-9.538000e-06,-1.120000,
-9.536000e-06,-2.640000,-9.536000e-06,-1.120000,
-9.534000e-06,-2.640000,-9.534000e-06,-1.120000,
-9.532000e-06,-2.640000,-9.532000e-06,-1.040000,
-9.530000e-06,-2.640000,-9.530000e-06,-1.040000,
-9.528000e-06,-2.640000,-9.528000e-06,-1.040000,
-9.526000e-06,-2.640000,-9.526000e-06,-1.040000,
-9.524000e-06,-2.640000,-9.524000e-06,-1.040000,
-9.522000e-06,-2.640000,-9.522000e-06,-1.040000,
-9.520000e-06,-2.640000,-9.520000e-06,-1.040000,
-9.518000e-06,-2.720000,-9.518000e-06,-1.040000,
-9.516000e-06,-2.720000,-9.516000e-06,-1.040000,
-9.514000e-06,-2.720000,-9.514000e-06,-1.040000,
-9.512000e-06,-2.720000,-9.512000e-06,-1.040000,
-9.510000e-06,-2.720000,-9.510000e-06,-1.040000,
-9.508000e-06,-2.720000,-9.508000e-06,-1.040000,
-9.506000e-06,-2.720000,-9.506000e-06,-1.040000,
-9.504000e-06,-2.720000,-9.504000e-06,-1.040000,
-9.502000e-06,-2.720000,-9.502000e-06,-1.040000,
-9.500000e-06,-2.720000,-9.500000e-06,-1.040000,
-9.498000e-06,-2.720000,-9.498000e-06,-1.040000,
-9.496000e-06,-2.720000,-9.496000e-06,-1.040000,
-9.494000e-06,-2.720000,-9.494000e-06,-0.960000,
-9.492000e-06,-2.720000,-9.492000e-06,-0.960000,
-9.490000e-06,-2.720000,-9.490000e-06,-0.960000,
-9.488000e-06,-2.720000,-9.488000e-06,-0.960000,
-9.486000e-06,-2.720000,-9.486000e-06,-0.960000,
-9.484000e-06,-2.720000,-9.484000e-06,-0.960000,
-9.482000e-06,-2.720000,-9.482000e-06,-0.960000,
-9.480000e-06,-2.720000,-9.480000e-06,-0.960000,
-9.478000e-06,-2.720000,-9.478000e-06,-0.960000,
-9.476000e-06,-2.720000,-9.476000e-06,-0.960000,
-9.474000e-06,-2.720000,-9.474000e-06,-0.960000,
-9.472000e-06,-2.720000,-9.472000e-06,-0.960000,
-9.470000e-06,-2.720000,-9.470000e-06,-0.960000,
-9.468000e-06,-2.720000,-9.468000e-06,-0.960000,
-9.466000e-06,-2.720000,-9.466000e-06,-0.960000,
-9.464000e-06,-2.720000,-9.464000e-06,-0.960000,
-9.462000e-06,-2.720000,-9.462000e-06,-0.960000,
-9.460000e-06,-2.720000,-9.460000e-06,-0.960000,
-9.458000e-06,-2.720000,-9.458000e-06,-0.800000,
-9.456000e-06,-2.720000,-9.456000e-06,-0.800000,
-9.454000e-06,-2.720000,-9.454000e-06,-0.800000,
-9.452000e-06,-2.720000,-9.452000e-06,-0.800000,
-9.450000e-06,-2.720000,-9.450000e-06,-0.800000,
-9.448000e-06,-2.720000,-9.448000e-06,-0.800000,
-9.446000e-06,-2.720000,-9.446000e-06,-0.800000,
-9.444000e-06,-2.720000,-9.444000e-06,-0.800000,
-9.442000e-06,-2.720000,-9.442000e-06,-0.800000,
-9.440000e-06,-2.720000,-9.440000e-06,-0.800000,
-9.438000e-06,-2.720000,-9.438000e-06,-0.800000,
-9.436000e-06,-2.720000,-9.436000e-06,-0.800000,
-9.434000e-06,-2.720000,-9.434000e-06,-0.800000,
-9.432000e-06,-2.800000,-9.432000e-06,-0.800000,
-9.430000e-06,-2.800000,-9.430000e-06,-0.800000,
-9.428000e-06,-2.720000,-9.428000e-06,-0.800000,
-9.426000e-06,-2.720000,-9.426000e-06,-0.800000,
-9.424000e-06,-2.800000,-9.424000e-06,-0.800000,
-9.422000e-06,-2.800000,-9.422000e-06,-0.800000,
-9.420000e-06,-2.800000,-9.420000e-06,-0.800000,
-9.418000e-06,-2.800000,-9.418000e-06,-0.800000,
-9.416000e-06,-2.800000,-9.416000e-06,-0.720000,
-9.414000e-06,-2.800000,-9.414000e-06,-0.720000,
-9.412000e-06,-2.800000,-9.412000e-06,-0.720000,
-9.410000e-06,-2.800000,-9.410000e-06,-0.720000,
-9.408000e-06,-2.800000,-9.408000e-06,-0.720000,
-9.406000e-06,-2.800000,-9.406000e-06,-0.720000,
-9.404000e-06,-2.800000,-9.404000e-06,-0.720000,
-9.402000e-06,-2.800000,-9.402000e-06,-0.720000,
-9.400000e-06,-2.800000,-9.400000e-06,-0.720000,
-9.398000e-06,-2.800000,-9.398000e-06,-0.720000,
-9.396000e-06,-2.800000,-9.396000e-06,-0.720000,
-9.394000e-06,-2.800000,-9.394000e-06,-0.720000,
-9.392000e-06,-2.800000,-9.392000e-06,-0.720000,
-9.390000e-06,-2.800000,-9.390000e-06,-0.720000,
-9.388000e-06,-2.800000,-9.388000e-06,-0.720000,
-9.386000e-06,-2.800000,-9.386000e-06,-0.720000,
-9.384000e-06,-2.800000,-9.384000e-06,-0.720000,
-9.382000e-06,-2.800000,-9.382000e-06,-0.720000,
-9.380000e-06,-2.800000,-9.380000e-06,-0.720000,
-9.378000e-06,-2.800000,-9.378000e-06,-0.720000,
-9.376000e-06,-2.800000,-9.376000e-06,-0.720000,
-9.374000e-06,-2.800000,-9.374000e-06,-0.720000,
-9.372000e-06,-2.800000,-9.372000e-06,-0.720000,
-9.370000e-06,-2.800000,-9.370000e-06,-0.720000,
-9.368000e-06,-2.800000,-9.368000e-06,-0.720000,
-9.366000e-06,-2.800000,-9.366000e-06,-0.720000,
-9.364000e-06,-2.800000,-9.364000e-06,-0.720000,
-9.362000e-06,-2.800000,-9.362000e-06,-0.640000,
-9.360000e-06,-2.800000,-9.360000e-06,-0.640000,
-9.358000e-06,-2.800000,-9.358000e-06,-0.640000,
-9.356000e-06,-2.800000,-9.356000e-06,-0.640000,
-9.354000e-06,-2.800000,-9.354000e-06,-0.640000,
-9.352000e-06,-2.800000,-9.352000e-06,-0.640000,
-9.350000e-06,-2.800000,-9.350000e-06,-0.640000,
-9.348000e-06,-2.800000,-9.348000e-06,-0.640000,
-9.346000e-06,-2.800000,-9.346000e-06,-0.640000,
-9.344000e-06,-2.800000,-9.344000e-06,-0.640000,
-9.342000e-06,-2.800000,-9.342000e-06,-0.640000,
-9.340000e-06,-2.800000,-9.340000e-06,-0.640000,
-9.338000e-06,-2.800000,-9.338000e-06,-0.640000,
-9.336000e-06,-2.800000,-9.336000e-06,-0.640000,
-9.334000e-06,-2.800000,-9.334000e-06,-0.640000,
-9.332000e-06,-2.800000,-9.332000e-06,-0.640000,
-9.330000e-06,-2.800000,-9.330000e-06,-0.640000,
-9.328000e-06,-2.800000,-9.328000e-06,-0.640000,
-9.326000e-06,-2.800000,-9.326000e-06,-0.640000,
-9.324000e-06,-2.800000,-9.324000e-06,-0.640000,
-9.322000e-06,-2.800000,-9.322000e-06,-0.640000,
-9.320000e-06,-2.800000,-9.320000e-06,-0.640000,
-9.318000e-06,-2.800000,-9.318000e-06,-0.640000,
-9.316000e-06,-2.800000,-9.316000e-06,-0.640000,
-9.314000e-06,-2.880000,-9.314000e-06,-0.640000,
-9.312000e-06,-2.880000,-9.312000e-06,-0.640000,
-9.310000e-06,-2.880000,-9.310000e-06,-0.640000,
-9.308000e-06,-2.800000,-9.308000e-06,-0.640000,
-9.306000e-06,-2.800000,-9.306000e-06,-0.640000,
-9.304000e-06,-2.800000,-9.304000e-06,-0.640000,
-9.302000e-06,-2.880000,-9.302000e-06,-0.640000,
-9.300000e-06,-2.880000,-9.300000e-06,-0.640000,
-9.298000e-06,-2.800000,-9.298000e-06,-0.640000,
-9.296000e-06,-2.880000,-9.296000e-06,-0.640000,
-9.294000e-06,-2.880000,-9.294000e-06,-0.640000,
-9.292000e-06,-2.800000,-9.292000e-06,-0.640000,
-9.290000e-06,-2.880000,-9.290000e-06,-0.640000,
-9.288000e-06,-2.880000,-9.288000e-06,-0.640000,
-9.286000e-06,-2.880000,-9.286000e-06,-0.640000,
-9.284000e-06,-2.800000,-9.284000e-06,-0.560000,
-9.282000e-06,-2.800000,-9.282000e-06,-0.560000,
-9.280000e-06,-2.880000,-9.280000e-06,-0.560000,
-9.278000e-06,-2.880000,-9.278000e-06,-0.560000,
-9.276000e-06,-2.880000,-9.276000e-06,-0.560000,
-9.274000e-06,-2.880000,-9.274000e-06,-0.560000,
-9.272000e-06,-2.880000,-9.272000e-06,-0.560000,
-9.270000e-06,-2.880000,-9.270000e-06,-0.560000,
-9.268000e-06,-2.880000,-9.268000e-06,-0.560000,
-9.266000e-06,-2.880000,-9.266000e-06,-0.560000,
-9.264000e-06,-2.880000,-9.264000e-06,-0.560000,
-9.262000e-06,-2.880000,-9.262000e-06,-0.560000,
-9.260000e-06,-2.800000,-9.260000e-06,-0.560000,
-9.258000e-06,-2.800000,-9.258000e-06,-0.560000,
-9.256000e-06,-2.800000,-9.256000e-06,-0.560000,
-9.254000e-06,-2.800000,-9.254000e-06,-0.560000,
-9.252000e-06,-2.800000,-9.252000e-06,-0.560000,
-9.250000e-06,-2.800000,-9.250000e-06,-0.560000,
-9.248000e-06,-2.800000,-9.248000e-06,-0.560000,
-9.246000e-06,-2.800000,-9.246000e-06,-0.560000,
-9.244000e-06,-2.800000,-9.244000e-06,-0.560000,
-9.242000e-06,-2.800000,-9.242000e-06,-0.560000,
-9.240000e-06,-2.800000,-9.240000e-06,-0.560000,
-9.238000e-06,-2.800000,-9.238000e-06,-0.560000,
-9.236000e-06,-2.800000,-9.236000e-06,-0.560000,
-9.234000e-06,-2.800000,-9.234000e-06,-0.560000,
-9.232000e-06,-2.800000,-9.232000e-06,-0.560000,
-9.230000e-06,-2.880000,-9.230000e-06,-0.560000,
